{"code":"OK","message":"","result":{"discover_type":"EXHIBITOR","seed":"e91361d4-f952-40ce-a033-423267b29361","items":[{"id":1475,"profile_id":322919,"nickname":"Raziq Azri","company":"Co-Founder & CEO","introduction":"CourtIQ is a computer vision platform that converts unstructured sports match footage — captured using a phone or GoPro — into automated highlights and player-level performance analytics, without the need for wearables or specialised cameras.\n\nWe have launched an MVP, validated early willingness to pay, established a gameplay data partnership, and deployed a live commercial futsal pilot in Singapore. The product has been built and deployed with strong capital efficiency (~$60k), with early traction across 2 countries.","website":"https://courtiq.co","looking_for":"We are currently raising our seed round and are looking to connect with potential lead investors as well as angels who have an interest in sports technology, AI, and consumer platforms."},{"id":4573,"profile_id":382916,"nickname":"Sakaguchi Masahide","company":"株式会社アウトクロップ","job_title":"プロダクション・マネージャー","department_name":"プロダクション事業部","email":"sakaguchi@outcrop.jp","introduction":"ドキュメンタリー映像制作を得意分野とするクリエイティブチームです。2〜30代のチームで国内外で問わず活躍しています。映画制作、CM制作、アニメーション・CG、プロモーション等、ジャンルを問わない制作実績があります。","looking_for":"ドキュメンタリー制作、プロモーション、ブランディング、等の制作に関しまして"},{"id":4180,"profile_id":381327,"nickname":"Motoki Manabu","company":"株式会社Magic Shields(マジックシールズ)","email":"manabu.motoki@magicshields.co.jp","birthdate":"1979/10/12","job_title":"CMO","department_name":"Marketing"},{"id":2312,"profile_id":321503,"nickname":"猪熊 高志","company":"株式会社LOOV","website":"https://talk-smith.com/"},{"id":1919,"profile_id":338544,"nickname":"Kawamoto Tadashi","company":"株式会社Square Roots Japan","email":"tadashi.kawamoto@squareroots.co.jp","job_title":"ファーム・プロジェクトマネージャー","department_name":"Operation Division"},{"id":4476,"profile_id":382508,"nickname":"Chiu Benjamin","company":"Deel","email":"ben@hbpriors.com","job_title":"Director","department_name":"Marketing"},{"id":1133,"profile_id":316152,"nickname":"Katsutoshi Horiuchi","company":"株式会社パワーウェーブ","email":"horiuchi.katsutoshi.001@powerwave.co.jp","job_title":"総務部長","department_name":"管理本部","website":"https://powerwave.co.jp/"},{"id":2608,"profile_id":349666,"nickname":"Lim Chaewoo","company":"ThePlato Inc.","email":"jacob168771@gmail.com","job_title":"Campus Leaders","department_name":"Campus Leaders"},{"id":199,"profile_id":290575,"nickname":"Yamanaka Toru","company":"LOOVIC株式会社","email":"toru.yamanaka@loovic.co.jp","job_title":"CEO","department_name":"Bizdev","introduction":"「人間拡張」と「技能継承」を軸に、現場向けタスク支援技術「TASK+al(タスカル)」を展開しています。製造・建設・美容などの現場において、熟練者の「生の声」による伴走支援で作業者の認知をガイドしつつ、作業の完成形の検証や判定にはAIを活用するハイブリッドな設計が特徴です。これまでの実証実験を経て、間もなくサービスの本格ローンチを迎えます。今後は事業拡大のフェーズとして、実際の現場へ本番導入いただける初期導入企業様や、市場展開を推進していただけるビジネスパートナーを探しています。","looking_for":"タスク支援技術「TASK+al(タスカル)」の本格ローンチに伴い、ビジネス展開を共に加速させるパートナーを募集しています。本サービスを実際の現場へ導入いただける初期導入企業様(ファーストユーザー)や、市場展開・販売拡大を推進していただけるセールスパートナー・アライアンス企業様との出会いを期待しています。実証実験(PoC)の次のフェーズとして、具体的な導入や商流構築に向けた前向きな商談を希望します。","website":"https://www.facebook.com/yamanaka.toru.1/"},{"id":4231,"profile_id":381544,"nickname":"Sean Low","company":"Ordinary Folk"},{"id":3297,"profile_id":362041,"nickname":"KAYEL LEE","company":"PAIX TECH","email":"kayel@paix.bot","job_title":"FOUNDER","department_name":"TECH","website":"www.paix.bot"},{"id":3838,"profile_id":370699,"nickname":"Ando Nobuyuki","company":"個人","email":"andomacue@gmail.com","birthdate":"1976/10/23","job_title":"なし","department_name":"なし"}],"total":661,"paging":{"page":1,"per_page":12,"total_pages":10,"has_more":true}}}
