pbpaste > "/Users/ishiinobuyuki/Documents/Obsidian Vault/08_情報収集/260428_sushitech_候補者_raw.json"

{"code":"OK","message":"","result":{"discover_type":"EXHIBITOR","seed":"e91361d4-f952-40ce-a033-423267b29361","items":[{"id":2791,"profile_id":353318,"live_chat_data_source_id":1455,"live_chat_user_id":"bk0o6mvl1585oqb4kjfhaqk9zf85ui7s6an5","uuid":"9127f3e0-223d-4671-b493-c986059161bf","nickname":"Sangu HIroyuki","company":"\u30d5\u30a1\u30fc\u30e1\u30e9\u30f3\u30bf\u682a\u5f0f\u4f1a\u793e","introduction":"\u8ca9\u58f2\u30d1\u30fc\u30c8\u30ca\u30fc\u3001\u4e8b\u696d\u958b\u767a\u30d1\u30fc\u30c8\u30ca\u30fc\u3001\u30d5\u30a1\u30a4\u30ca\u30f3\u30b9\u306e\u30d1\u30fc\u30c8\u30ca\u30fc\u3092\u63a2\u3057\u3066\u3044\u307e\u3059","icon_image":{"file":"\/images\/800\/749\/14943\/user\/8034464\/eventos-6e258b1e-a187-41c2-b37d-f54c6c507a77.png","mime":"image\/png","size":244500,"width":512,"height":512},"background_image":null,"user_id":8034464,"is_exhibitor":true,"custom_fields":{"email":"czc06754@nifty.com","birthdate":"1969\/10\/21","job_title":"\u30c7\u30a3\u30ec\u30af\u30bf\u30fc","department_name":"\u4e8b\u696d\u958b\u767a\u90e8","additional17720140841061":"option177305650780551","additional17720140860572":"option177305655869570","additional17720140871183":"option1773056787528146","additional17720140879634":"option177305668684599","additional17720140887955":"option1773056840382162","additional17730560193861":"option1773058431497381","additional177305609280235":"option1773058570907403","additional1772021394036178":"option1773056877479175","additional1772021437708195":"","additional1772021532391218":"\u8ca9\u58f2\u30d1\u30fc\u30c8\u30ca\u30fc\u3001\u4e8b\u696d\u958b\u767a\u30d1\u30fc\u30c8\u30ca\u30fc\u3001\u30d5\u30a1\u30a4\u30ca\u30f3\u30b9\u306e\u30d1\u30fc\u30c8\u30ca\u30fc\u3092\u63a2\u3057\u3066\u3044\u307e\u3059","additional1772021554857219":"option177315936077259","additional1772021628631266":"option1773057041653224","additional1772021679661297":"","additional1772021972575298":"https:\/\/fermelanta.com\/"},"tags":[]},{"id":5741,"profile_id":390076,"live_chat_data_source_id":1455,"live_chat_user_id":"f8r0y65aibme93a9k39sv1g7wm7idgut2uka","uuid":"77c0f0f8-e7f6-4502-81a4-1f183521f2fb","nickname":"Riku Ashikaga","company":"\u682a\u5f0f\u4f1a\u793eKikuvi","introduction":"","icon_image":null,"background_image":null,"user_id":8111413,"is_exhibitor":true,"custom_fields":{"email":"ashikaga@lucerna.co.jp","job_title":"Sales","department_name":"Sales","additional17720140841061":"option177305650780551","additional17720140860572":"option177305659989994","additional17720140871183":"option1773056787528146","additional17720140879634":"option1773056756323139","additional17720140887955":"","additional17730560193861":"option1773058431497381","additional177305609280235":"option1773058570907403","additional1772021394036178":"","additional1772021437708195":"","additional1772021532391218":"","additional1772021554857219":"option177315936077259","additional1772021628631266":"option1773057051124230","additional1772021679661297":"","additional1772021972575298":""},"tags":[]},{"id":923,"profile_id":311254,"live_chat_data_source_id":1455,"live_chat_user_id":"b53txmusohng03x5zv5zskm97y3wm9zbm4hv","uuid":"c521e86d-3aaf-460d-ab22-9bb6ed4c71f3","nickname":"Tewary Shashikant","company":"Orish J Bioworks Pvt. Ltd.","introduction":"I'm taking care of operations and technology at Orish J Bioworks Pvt. Ltd.","icon_image":{"file":"\/images\/800\/749\/14943\/user\/7967801\/eventos-e895c393-dd31-4853-adea-ebc3a25a30c6.png","mime":"image\/png","size":215090,"width":512,"height":512},"background_image":null,"user_id":7967801,"is_exhibitor":true,"custom_fields":{"email":"info@orishj.com","job_title":"Director","department_name":"Operations","additional17720140841061":"option177305650780551","additional17720140860572":"option177305655869570","additional17720140871183":"option1773056787528146","additional17720140879634":"option1773056736865127","additional17720140887955":"option1773056833645158","additional17730560193861":"option1773058431497381","additional177305609280235":"option1773058570907403","additional1772021394036178":"option1773056886398178","additional1772021437708195":"option177322685242812","additional1772021532391218":"I'm taking care of operations and technology at Orish J Bioworks Pvt. Ltd.","additional1772021554857219":"option177315939593775","additional1772021628631266":"option1773057041653224","additional1772021679661297":"On behalf of Orish J Bioworks Pvt. Ltd., I'm looking for strategic partnerships for B2B ingredient distribution in Japan, technology & investment and scientific research. ","additional1772021972575298":"https:\/\/in.linkedin.com\/in\/shashikant-tewary-956ab911"},"tags":[]},{"id":4414,"profile_id":382124,"live_chat_data_source_id":1455,"live_chat_user_id":"qur82rk93e20ri702rx7pho1g5oleljbyz9g","uuid":"60002791-666c-49e4-889c-5f897a989b32","nickname":"Shimizu Mitsuki","company":"\u682a\u5f0f\u4f1a\u793eestie","introduction":"","icon_image":null,"background_image":null,"user_id":8144720,"is_exhibitor":true,"custom_fields":{"email":"mitsuki.shimizu@estie.co.jp","birthdate":"2026\/04\/27","job_title":"Director","department_name":"Business Planning\u200b\u200b\u200b\u200b\u200b\u200b\u3000","additional17720140841061":"option177305650780551","additional17720140860572":"option177305653590758","additional17720140871183":"option1773056787528146","additional17720140879634":"option1773056733538125","additional17720140887955":"","additional17730560193861":"option1773058431497381","additional177305609280235":"option1773058570907403","additional1772021394036178":"","additional1772021437708195":"","additional1772021532391218":"","additional1772021554857219":"option177315937419365","additional1772021628631266":"option1773057044891226","additional1772021679661297":"","additional1772021972575298":""},"tags":[]},{"id":4955,"profile_id":325038,"live_chat_data_source_id":1455,"live_chat_user_id":"1wdFrLSuTTt9o4fjJVjKaP6EPmFEJOJk707k","uuid":"349fff41-8fdc-4471-b2f1-8979e442f133","nickname":"Watanabe Yusuke","company":"\u682a\u5f0f\u4f1a\u793eMEDVERSE","introduction":"","icon_image":null,"background_image":null,"user_id":8007553,"is_exhibitor":true,"custom_fields":{"additional17720140841061":"option177305650780551","additional17720140860572":"option177305655165568","additional17720140871183":"","additional17720140879634":"option1773056712190115","additional17720140887955":"","additional17730560193861":"option1773058431497381","additional177305609280235":"option1773058570907403","additional1772021394036178":"","additional1772021437708195":"","additional1772021532391218":"","additional1772021554857219":"option177315939904777","additional1772021628631266":"option1773057038415222","additional1772021679661297":"","additional1772021972575298":""},"tags":[]},{"id":137,"profile_id":290140,"live_chat_data_source_id":1455,"live_chat_user_id":"4x98uk8fm2pauypzqimqyy9an67iep1id4wj","uuid":"61dba3a8-7132-4b2e-b728-92eb05ea0277","nickname":"AGHA QALAB HASSNAIN","company":"QuickComm AI","introduction":"","icon_image":{"file":"\/images\/800\/749\/14943\/user\/7809337\/eventos-2d63bde9-27c5-4869-baca-e705b90c9896.png","mime":"image\/png","size":261635,"width":512,"height":512},"background_image":null,"user_id":7809337,"is_exhibitor":true,"custom_fields":{"email":"qalab@quickcomm.ae","job_title":"CTO","department_name":"Engineering","additional17720140841061":"option177305650780551","additional17720140860572":"option177305658044984","additional17720140871183":"option1773056792621150","additional17720140879634":"option1773056753237137","additional17720140887955":"option1773056833645158","additional17730560193861":"option1773058431497381","additional177305609280235":"option1773058570907403","additional1772021394036178":"option1773056873682173","additional1772021437708195":"option17732268447959","additional1772021532391218":"","additional1772021554857219":"option177315937041163","additional1772021628631266":"option1773057044891226","additional1772021679661297":"","additional1772021972575298":"https:\/\/quickcomm.ae\/"},"tags":[]},{"id":1219,"profile_id":318429,"live_chat_data_source_id":1455,"live_chat_user_id":"nocbz1loyub5pf91dhv537ee1fad10l1lzyr","uuid":"92faad84-43e4-4ba1-b53d-b727d5fc5bb6","nickname":"Oimatsu Riki","company":"Intellect Company Pte. Ltd.","introduction":"","icon_image":null,"background_image":null,"user_id":8003571,"is_exhibitor":true,"custom_fields":{"email":"riki@intellect.co","birthdate":"1998\/06\/16","job_title":"\u65e5\u672c\u4e8b\u696d\u8cac\u4efb\u8005","department_name":"\u65e5\u672c\u4e8b\u696d","additional17720140841061":"option177305650780551","additional17720140860572":"option177305655165568","additional17720140871183":"option1773056787528146","additional17720140879634":"option177305668684599","additional17720140887955":"","additional17730560193861":"option1773058431497381","additional177305609280235":"option1773058570907403","additional1772021394036178":"","additional1772021437708195":"","additional1772021532391218":"","additional1772021554857219":"option177315936495761","additional1772021628631266":"option1773057044891226","additional1772021679661297":"","additional1772021972575298":""},"tags":[]},{"id":5251,"profile_id":386295,"live_chat_data_source_id":1455,"live_chat_user_id":"wmfqlr8apt2d5p79k4r41q3yb6jsqoqfitph","uuid":"308946db-3978-481d-a570-5d0d7d6a83e5","nickname":"Huang Yi-Min","company":"\u5b9c\u667a\u79d1\u6280\u682a\u5f0f\u4f1a\u793e","introduction":"","icon_image":null,"background_image":null,"user_id":8085067,"is_exhibitor":true,"custom_fields":{"email":"y.m.huang0128@gmail.com","birthdate":"2005\/01\/28","job_title":"Chief Executive Officer","department_name":"Executive Management","additional17720140841061":"option177305650780551","additional17720140860572":"option177305654201362","additional17720140871183":"option1773056787528146","additional17720140879634":"option177305668684599","additional17720140887955":"option1773056828030156","additional17730560193861":"option1773058431497381","additional177305609280235":"option1773058570907403","additional1772021394036178":"option1773056873682173","additional1772021437708195":"option17732268447959","additional1772021532391218":"","additional1772021554857219":"option177315936077259","additional1772021628631266":"option1773057041653224","additional1772021679661297":"","additional1772021972575298":"www.ezeetech.tw"},"tags":[]},{"id":5399,"profile_id":334849,"live_chat_data_source_id":1455,"live_chat_user_id":"4W37EwFHvE7KQgXLJ2L4ITfS35ZtULIjCleg","uuid":"b9df30e4-a5a2-4ff7-9605-abbef13d374d","nickname":"Shen Vic","company":"Aiello","introduction":"","icon_image":null,"background_image":null,"user_id":7834235,"is_exhibitor":true,"custom_fields":{"additional17720140841061":"option177305650780551","additional17720140860572":"option177305659674692","additional17720140871183":"option1773056787528146","additional17720140879634":"option177305668684599","additional17720140887955":"option1773056840382162","additional17730560193861":"option1773058431497381","additional177305609280235":"option1773058570907403","additional1772021394036178":"option1773056881182177","additional1772021437708195":"option177322685895115","additional1772021532391218":"","additional1772021554857219":"option177315936077259","additional1772021628631266":"option1773057041653224","additional1772021679661297":"","additional1772021972575298":""},"tags":[]},{"id":2056,"profile_id":340283,"live_chat_data_source_id":1455,"live_chat_user_id":"cbk2om6kidqyiluzok4amoze155xf8h7t0de","uuid":"be301632-de6a-4662-9ae2-aefa81f98f23","nickname":"Kanerew Wanut","company":"VEKIN","introduction":"VEKIN is a Deep Tech for Sustainability company building \u201cTrust Infrastructure\u201d that makes carbon and sustainability data transparent, auditable, and finance-ready.\nWe combine AI, blockchain, IoT, and satellite data to elevate Digital MRV\u2014measuring and verifying greenhouse gas emissions with high accuracy across supply chains.\nBy turning carbon data into credible evidence and actionable insights, VEKIN helps organizations access green finance (e.g., green loans) while enabling funders to track climate impact with confidence.","icon_image":null,"background_image":null,"user_id":8036473,"is_exhibitor":true,"custom_fields":{"email":"wanut@vekin.tech","birthdate":"1992\/04\/09","job_title":"Business Development Manager","department_name":"Business Development","additional17720140841061":"option177305650780551","additional17720140860572":"option177305656456174","additional17720140871183":"option1773056787528146","additional17720140879634":"option177305668684599","additional17720140887955":"option1773056840382162","additional17730560193861":"option1773058431497381","additional177305609280235":"option1773058570907403","additional1772021394036178":"option1773056877479175","additional1772021437708195":"option177322689965420","additional1772021532391218":"VEKIN is a Deep Tech for Sustainability company building \u201cTrust Infrastructure\u201d that makes carbon and sustainability data transparent, auditable, and finance-ready.\nWe combine AI, blockchain, IoT, and satellite data to elevate Digital MRV\u2014measuring and verifying greenhouse gas emissions with high accuracy across supply chains.\nBy turning carbon data into credible evidence and actionable insights, VEKIN helps organizations access green finance (e.g., green loans) while enabling funders to track climate impact with confidence.","additional1772021554857219":"option177315939139573","additional1772021628631266":"option1773057041653224","additional1772021679661297":"VEKIN is expanding globally and seeking partners to co-develop POC or pilot projects in Climate Tech. Using AI-driven Digital MRV and trust infrastructure, we enable transparent, scalable sustainability solutions across industries.","additional1772021972575298":"https:\/\/www.linkedin.com\/company\/vekin"},"tags":[]},{"id":3531,"profile_id":365371,"live_chat_data_source_id":1455,"live_chat_user_id":"fp3omrlv04ze79cxokksye6o0ffufy7tmdcp","uuid":"f95dab14-dba9-4949-9be2-787352dc6d65","nickname":"Kitamura Moana","company":"Floatmeal ","introduction":"","icon_image":null,"background_image":null,"user_id":8128246,"is_exhibitor":true,"custom_fields":{"email":"moana@floatmeal.com","job_title":"\u4ee3\u8868\u53d6\u7de0\u5f79","department_name":"\u4ee3\u8868\u53d6\u7de0\u5f79","additional17720140841061":"option177305650780551","additional17720140860572":"option177305654826166","additional17720140871183":"option1773056787528146","additional17720140879634":"option177305668684599","additional17720140887955":"option1773056853981167","additional17730560193861":"option1773058431497381","additional177305609280235":"option1773058570907403","additional1772021394036178":"option1773056870672171","additional1772021437708195":"option177322689965420","additional1772021532391218":"","additional1772021554857219":"option177315939904777","additional1772021628631266":"option1773057038415222","additional1772021679661297":"","additional1772021972575298":""},"tags":[]},{"id":4072,"profile_id":380884,"live_chat_data_source_id":1455,"live_chat_user_id":"nwse6f30kepg55j0q2phe3o4f1qxoowwzoud","uuid":"5286a869-2bd4-40a3-9e05-ec97bb7a592f","nickname":"Bishago Yui","company":"Refined Robotics","introduction":"\u5b9f\u4e16\u754c\u3067\u30e9\u30b9\u30c8\u30de\u30a4\u30eb\u914d\u9001\u3092\u884c\u3046\u4e8c\u8db3\u8eca\u8f2a\u811a\u578b\u30ed\u30dc\u30c3\u30c8\u306e\u7814\u7a76\u958b\u767a\u3092\u884c\u3063\u3066\u3044\u307e\u3059\u3002\u5f0a\u793e\u306e\u30ed\u30dc\u30c3\u30c8\u3092\u696d\u52d9\u3067\u5c0e\u5165\u3057\u305f\u3044\u65b9\u3001\u30ed\u30dc\u30c3\u30c8\u306e\u306b\u8208\u5473\u304c\u3042\u308b\u65b9\u306a\u3069\u3001\u5e83\u304f\u304a\u8a71\u3057\u3057\u307e\u3057\u3087\u3046\uff01","icon_image":null,"background_image":null,"user_id":8141922,"is_exhibitor":true,"custom_fields":{"email":"yui@refinedrobotics.com","birthdate":"2000\/10\/26","job_title":"CTO","department_name":"Mgmt","additional17720140841061":"option177305650780551","additional17720140860572":"option177305657742682","additional17720140871183":"option1773056787528146","additional17720140879634":"option1773056702176109","additional17720140887955":"option1773056828030156","additional17730560193861":"option1773058431497381","additional177305609280235":"option1773058570907403","additional1772021394036178":"option1773056873682173","additional1772021437708195":"","additional1772021532391218":"\u5b9f\u4e16\u754c\u3067\u30e9\u30b9\u30c8\u30de\u30a4\u30eb\u914d\u9001\u3092\u884c\u3046\u4e8c\u8db3\u8eca\u8f2a\u811a\u578b\u30ed\u30dc\u30c3\u30c8\u306e\u7814\u7a76\u958b\u767a\u3092\u884c\u3063\u3066\u3044\u307e\u3059\u3002\u5f0a\u793e\u306e\u30ed\u30dc\u30c3\u30c8\u3092\u696d\u52d9\u3067\u5c0e\u5165\u3057\u305f\u3044\u65b9\u3001\u30ed\u30dc\u30c3\u30c8\u306e\u306b\u8208\u5473\u304c\u3042\u308b\u65b9\u306a\u3069\u3001\u5e83\u304f\u304a\u8a71\u3057\u3057\u307e\u3057\u3087\u3046\uff01","additional1772021554857219":"option177315941700787","additional1772021628631266":"option1773057041653224","additional1772021679661297":"\u30ed\u30dc\u30c3\u30c8\u306e\u30e6\u30fc\u30b9\u30b1\u30fc\u30b9\u306e\u5171\u5275","additional1772021972575298":"https:\/\/refinedrobotics.com\/"},"tags":[]}],"total":661,"paging":{"page":10,"per_page":12,"total_pages":10,"has_more":false}}}