{"code":"OK","message":"","result":{"discover_type":"EXHIBITOR","seed":"e91361d4-f952-40ce-a033-423267b29361","items":[{"id":2791,"profile_id":353318,"live_chat_data_source_id":1455,"live_chat_user_id":"bk0o6mvl1585oqb4kjfhaqk9zf85ui7s6an5","uuid":"9127f3e0-223d-4671-b493-c986059161bf","nickname":"Sangu HIroyuki","company":"ファーメランタ株式会社","introduction":"販売パートナー、事業開発パートナー、ファイナンスのパートナーを探しています","icon_image":{"file":"/images/800/749/14943/user/8034464/eventos-6e258b1e-a187-41c2-b37d-f54c6c507a77.png","mime":"image/png","size":244500,"width":512,"height":512},"background_image":null,"user_id":8034464,"is_exhibitor":true,"custom_fields":{"email":"czc06754@nifty.com","birthdate":"1969/10/21","job_title":"ディレクター","department_name":"事業開発部","additional1772021532391218":"販売パートナー、事業開発パートナー、ファイナンスのパートナーを探しています","additional1772021972575298":"https://fermelanta.com/"},"tags":[]},{"id":5741,"profile_id":390076,"nickname":"Riku Ashikaga","company":"株式会社Kikuvi","job_title":"Sales","department_name":"Sales","email":"ashikaga@lucerna.co.jp"},{"id":923,"profile_id":311254,"nickname":"Tewary Shashikant","company":"Orish J Bioworks Pvt. Ltd.","introduction":"I'm taking care of operations and technology at Orish J Bioworks Pvt. Ltd.","job_title":"Director","department_name":"Operations","email":"info@orishj.com","linkedin":"https://in.linkedin.com/in/shashikant-tewary-956ab911","looking_for":"On behalf of Orish J Bioworks Pvt. Ltd., I'm looking for strategic partnerships for B2B ingredient distribution in Japan, technology & investment and scientific research."},{"id":4414,"profile_id":382124,"nickname":"Shimizu Mitsuki","company":"株式会社estie","job_title":"Director","department_name":"Business Planning","email":"mitsuki.shimizu@estie.co.jp","birthdate":"2026/04/27"},{"id":4955,"profile_id":325038,"nickname":"Watanabe Yusuke","company":"株式会社MEDVERSE"},{"id":137,"profile_id":290140,"nickname":"AGHA QALAB HASSNAIN","company":"QuickComm AI","job_title":"CTO","department_name":"Engineering","email":"qalab@quickcomm.ae","website":"https://quickcomm.ae/"},{"id":1219,"profile_id":318429,"nickname":"Oimatsu Riki","company":"Intellect Company Pte. Ltd.","job_title":"日本事業責任者","department_name":"日本事業","email":"riki@intellect.co","birthdate":"1998/06/16"},{"id":5251,"profile_id":386295,"nickname":"Huang Yi-Min","company":"宜智科技株式会社","job_title":"Chief Executive Officer","department_name":"Executive Management","email":"y.m.huang0128@gmail.com","birthdate":"2005/01/28","website":"www.ezeetech.tw"},{"id":5399,"profile_id":334849,"nickname":"Shen Vic","company":"Aiello"},{"id":2056,"profile_id":340283,"nickname":"Kanerew Wanut","company":"VEKIN","introduction":"VEKIN is a Deep Tech for Sustainability company building Trust Infrastructure that makes carbon and sustainability data transparent, auditable, and finance-ready. We combine AI, blockchain, IoT, and satellite data to elevate Digital MRV—measuring and verifying greenhouse gas emissions with high accuracy across supply chains.","job_title":"Business Development Manager","department_name":"Business Development","email":"wanut@vekin.tech","birthdate":"1992/04/09","linkedin":"https://www.linkedin.com/company/vekin","looking_for":"VEKIN is expanding globally and seeking partners to co-develop POC or pilot projects in Climate Tech."},{"id":3531,"profile_id":365371,"nickname":"Kitamura Moana","company":"Floatmeal","job_title":"代表取締役","department_name":"代表取締役","email":"moana@floatmeal.com"},{"id":4072,"profile_id":380884,"nickname":"Bishago Yui","company":"Refined Robotics","introduction":"実世界でラストマイル配送を行う二足車輪脚型ロボットの研究開発を行っています。弊社のロボットを業務で導入したい方、ロボットのに興味がある方など、広くお話ししましょう!","job_title":"CTO","department_name":"Mgmt","email":"yui@refinedrobotics.com","birthdate":"2000/10/26","website":"https://refinedrobotics.com/","looking_for":"ロボットのユースケースの共創"}],"total":661,"paging":{"page":10,"per_page":12,"total_pages":10,"has_more":false}}}
